{
    "database_server"   : "localhost",
    "redis_server"      : "localhost",
    "data_folder"       : "/home/montimage/mmt-bandwidth/csv/",
    "input_mode"        : "file",
    "local_network": [{
            "ip": "192.0.0.0",
            "mask": "255.0.0.0"
        },
        {
            "ip": "172.0.0.0",
            "mask": "255.0.0.0"
        },
        {
            "ip": "10.0.0.0",
            "mask": "255.0.0.0"
        }],
    "period"            : "minute",
    "is_in_debug_mode"  : true
}
